SELECT p1.BrandName, COUNT(DISTINCT p2.CustomerId) FROM Purchases p2 RIGHT JOIN Products p1 ON p2.ProductId = p1.ProductId GROUP BY p1.BrandName;
BrandName   |   CustomerId)   |   provenance formula   |   provsql-token

Apple | count{ (1 * (t50 ⊗ 𝟙)) , (1 * (t1 ⊗ 𝟙)) , (1 * (t16 ⊗ 𝟙)) , (1 * (t17 ⊗ 𝟙)) , (1 * (t18 ⊗ 𝟙)) , (1 * (t19 ⊗ 𝟙)) , (1 * (t22 ⊗ 𝟙)) , (1 * (t23 ⊗ 𝟙)) , (1 * (t24 ⊗ 𝟙)) , (1 * (t25 ⊗ 𝟙)) , (1 * (t27 ⊗ 𝟙)) , (1 * (t28 ⊗ 𝟙)) , (1 * (t29 ⊗ 𝟙)) , (1 * (t30 ⊗ 𝟙)) , (1 * (t32 ⊗ 𝟙)) , (1 * (t33 ⊗ 𝟙)) , (1 * (t39 ⊗ 𝟙)) , (1 * (t40 ⊗ 𝟙)) , (1 * (t41 ⊗ 𝟙)) , (1 * (t44 ⊗ 𝟙)) , (1 * (t45 ⊗ 𝟙)) , (1 * (t46 ⊗ 𝟙)) , (1 * (t0 ⊗ 𝟙)) , (1 * (t3 ⊗ 𝟙)) , (1 * (t5 ⊗ 𝟙)) , (1 * (t6 ⊗ 𝟙)) , (1 * (t8 ⊗ 𝟙)) , (1 * (t10 ⊗ 𝟙)) , (1 * (t13 ⊗ 𝟙)) , (1 * (t15 ⊗ 𝟙)) } | a4f51fba-9654-5b82-ab59-f8d9771ef4ca
Google | count{ (1 * (t14 ⊗ 𝟙)) , (1 * (t12 ⊗ 𝟙)) , (1 * (t35 ⊗ 𝟙)) , (1 * (t36 ⊗ 𝟙)) , (1 * (t37 ⊗ 𝟙)) , (1 * (t43 ⊗ 𝟙)) } | cb6a3a50-a53f-5bda-a6ab-2a62d94dfd73
Honor | count{ (1 * (t34 ⊗ 𝟙)) , (1 * (t4 ⊗ 𝟙)) , (1 * (t47 ⊗ 𝟙)) , (1 * (t42 ⊗ 𝟙)) } | e2337af1-d092-580b-a302-0455b6a2bcae
OnePlus | count{ (1 * (t48 ⊗ 𝟙)) , (1 * (t20 ⊗ 𝟙)) , (1 * (t38 ⊗ 𝟙)) , (1 * (t11 ⊗ 𝟙)) } | 4f84812e-111c-57df-9989-01528f0dcdba
Samsung | count{ (1 * (t9 ⊗ 𝟙)) , (1 * (t2 ⊗ 𝟙)) , (1 * (t7 ⊗ 𝟙)) , (1 * (t31 ⊗ 𝟙)) , (1 * (t21 ⊗ 𝟙)) , (1 * (t26 ⊗ 𝟙)) , (1 * (t49 ⊗ 𝟙)) } | 2b3043bc-df51-5e66-bd5a-20c26e8324ad

---------------------------

Apple | count{ (1 * (𝟙 ⊗ t4)) , (1 * (𝟙 ⊗ t3)) , (1 * (𝟙 ⊗ t2)) , (1 * (𝟙 ⊗ t1)) , (1 * (𝟙 ⊗ t2)) , (1 * (𝟙 ⊗ t1)) , (1 * (𝟙 ⊗ t4)) , (1 * (𝟙 ⊗ t0)) , (1 * (𝟙 ⊗ t1)) , (1 * (𝟙 ⊗ t0)) , (1 * (𝟙 ⊗ t2)) , (1 * (𝟙 ⊗ t2)) , (1 * (𝟙 ⊗ t2)) , (1 * (𝟙 ⊗ t4)) , (1 * (𝟙 ⊗ t4)) , (1 * (𝟙 ⊗ t2)) , (1 * (𝟙 ⊗ t3)) , (1 * (𝟙 ⊗ t3)) , (1 * (𝟙 ⊗ t4)) , (1 * (𝟙 ⊗ t1)) , (1 * (𝟙 ⊗ t0)) , (1 * (𝟙 ⊗ t3)) , (1 * (𝟙 ⊗ t4)) , (1 * (𝟙 ⊗ t3)) , (1 * (𝟙 ⊗ t0)) , (1 * (𝟙 ⊗ t1)) , (1 * (𝟙 ⊗ t2)) , (1 * (𝟙 ⊗ t1)) , (1 * (𝟙 ⊗ t2)) , (1 * (𝟙 ⊗ t2)) } | a4f51fba-9654-5b82-ab59-f8d9771ef4ca
Google | count{ (1 * (𝟙 ⊗ t8)) , (1 * (𝟙 ⊗ t8)) , (1 * (𝟙 ⊗ t8)) , (1 * (𝟙 ⊗ t8)) , (1 * (𝟙 ⊗ t8)) , (1 * (𝟙 ⊗ t8)) } | cb6a3a50-a53f-5bda-a6ab-2a62d94dfd73
Honor | count{ (1 * (𝟙 ⊗ t9)) , (1 * (𝟙 ⊗ t9)) , (1 * (𝟙 ⊗ t9)) , (1 * (𝟙 ⊗ t9)) } | e2337af1-d092-580b-a302-0455b6a2bcae
OnePlus | count{ (1 * (𝟙 ⊗ t7)) , (1 * (𝟙 ⊗ t7)) , (1 * (𝟙 ⊗ t7)) , (1 * (𝟙 ⊗ t7)) } | 4f84812e-111c-57df-9989-01528f0dcdba
Samsung | count{ (1 * (𝟙 ⊗ t5)) , (1 * (𝟙 ⊗ t5)) , (1 * (𝟙 ⊗ t5)) , (1 * (𝟙 ⊗ t6)) , (1 * (𝟙 ⊗ t6)) , (1 * (𝟙 ⊗ t5)) , (1 * (𝟙 ⊗ t5)) } | 2b3043bc-df51-5e66-bd5a-20c26e8324ad

---------------------------

